ISATest/test.vcd
$date
	Tue Jan 17 15:59:20 2023
$end
$version
	Icarus Verilog
$end
$timescale
	1ps
$end
$scope module test $end
$var wire 32 ! IR [31:0] $end
$var wire 32 " PC [31:0] $end
$var reg 1 # rst_n $end
$var reg 1 $ sys_clk $end
$var integer 32 % fd [31:0] $end
$var integer 32 & r [31:0] $end
$scope module u_soc $end
$var wire 1 $ clk $end
$var wire 1 # rstn $end
$var wire 1 ' romWriteEnable $end
$var wire 32 ( romWriteData [31:0] $end
$var wire 32 ) romReadData [31:0] $end
$var wire 32 * romAddr [31:0] $end
$var wire 1 + ramWriteEnable $end
$var wire 32 , ramWriteData [31:0] $end
$var wire 32 - ramReadData [31:0] $end
$var wire 32 . ramAddr [31:0] $end
$var wire 1 / busWriteEn $end
$var wire 32 0 busWriteData [31:0] $end
$var wire 32 1 busReadData [31:0] $end
$var wire 32 2 busAddr [31:0] $end
$var wire 32 3 PC [31:0] $end
$var wire 32 4 IR [31:0] $end
$scope module u_core $end
$var wire 1 $ clk $end
$var wire 1 # rstn $end
$var wire 32 5 rs2Data [31:0] $end
$var wire 5 6 rs2 [4:0] $end
$var wire 32 7 rs1Data [31:0] $end
$var wire 5 8 rs1 [4:0] $end
$var wire 1 9 rdEn $end
$var wire 32 : rdData [31:0] $end
$var wire 5 ; rd [4:0] $end
$var wire 1 < holdFlag $end
$var wire 1 = exWritePCEn $end
$var wire 32 > exWritePCData [31:0] $end
$var wire 1 ? exWriteCSRsEn $end
$var wire 32 @ exWriteCSRsData [31:0] $end
$var wire 32 A exReadCSRsData [31:0] $end
$var wire 12 B exCSRsAddr [11:0] $end
$var wire 32 C csrMtvecData [31:0] $end
$var wire 32 D csrMstatusData [31:0] $end
$var wire 32 E csrMepcData [31:0] $end
$var wire 1 F clintWritePCEn $end
$var wire 32 G clintWritePCData [31:0] $end
$var wire 1 H clintWriteCSRsEn $end
$var wire 32 I clintWriteCSRsData [31:0] $end
$var wire 12 J clintCSRsAddr [11:0] $end
$var wire 1 / busWriteEn $end
$var wire 32 K busWriteData [31:0] $end
$var wire 32 L busReadData [31:0] $end
$var wire 32 M busAddr [31:0] $end
$var wire 32 N PC [31:0] $end
$var wire 32 O IR [31:0] $end
$scope module u_CSRs $end
$var wire 1 $ clk $end
$var wire 1 # rstn $end
$var wire 1 ? exWriteEn $end
$var wire 32 P exWriteData [31:0] $end
$var wire 12 Q exAddr [11:0] $end
$var wire 1 H clintWriteEn $end
$var wire 32 R clintWriteData [31:0] $end
$var wire 12 S clintAddr [11:0] $end
$var parameter 32 T marchid $end
$var parameter 32 U mhartid $end
$var parameter 32 V mimpid $end
$var parameter 32 W mvendorid $end
$var reg 12 X addr [11:0] $end
$var reg 64 Y cycle [63:0] $end
$var reg 32 Z exReadData [31:0] $end
$var reg 32 [ mcause [31:0] $end
$var reg 32 \ mepc [31:0] $end
$var reg 32 ] mie [31:0] $end
$var reg 32 ^ minstret [31:0] $end
$var reg 32 _ minstreth [31:0] $end
$var reg 32 ` mip [31:0] $end
$var reg 32 a misa [31:0] $end
$var reg 32 b mscratch [31:0] $end
$var reg 32 c mstatus [31:0] $end
$var reg 32 d mtval [31:0] $end
$var reg 32 e mtvec [31:0] $end
$var reg 32 f writeData [31:0] $end
$var reg 1 g writeEn $end
$upscope $end
$scope module u_Clint $end
$var wire 1 $ clk $end
$var wire 32 h csrMepcData [31:0] $end
$var wire 32 i csrMstatusData [31:0] $end
$var wire 32 j csrMtvecData [31:0] $end
$var wire 8 k intFlag [7:0] $end
$var wire 1 # rstn $end
$var wire 32 l PC [31:0] $end
$var wire 32 m IR [31:0] $end
$var parameter 3 n sCSRIdle $end
$var parameter 3 o sCSRMcause $end
$var parameter 3 p sCSRMepc $end
$var parameter 3 q sCSRMret $end
$var parameter 3 r sCSRMstatus $end
$var parameter 3 s sCSRWait $end
$var parameter 2 t sException $end
$var parameter 2 u sIntIdle $end
$var parameter 2 v sInterrupt $end
$var parameter 2 w sMret $end
$var reg 32 x cause [31:0] $end
$var reg 12 y csrAddr [11:0] $end
$var reg 3 z csrState [2:0] $end
$var reg 32 { csrWriteData [31:0] $end
$var reg 1 H csrWriteEn $end
$var reg 1 | globalIntEnable $end
$var reg 1 < holdFlag $end
$var reg 2 } intState [1:0] $end
$var reg 32 ~ jumpAddr [31:0] $end
$var reg 1 F jumpEn $end
$var reg 32 !" toMepc [31:0] $end
$upscope $end
$scope module u_PCReg $end
$var wire 32 "" clintJumpAddr [31:0] $end
$var wire 1 F clintJumpEn $end
$var wire 1 $ clk $end
$var wire 1 < holdFlag $end
$var wire 1 # rstn $end
$var wire 1 = exJumpEn $end
$var wire 32 #" exJumpAddr [31:0] $end
$var reg 32 $" PC [31:0] $end
$upscope $end
$scope module u_id_ex $end
$var wire 32 %" CSRsReadData [31:0] $end
$var wire 32 &" PC [31:0] $end
$var wire 1 < holdFlag $end
$var wire 1 # rstn $end
$var wire 32 '" rs2Data [31:0] $end
$var wire 32 (" rs1Data [31:0] $end
$var wire 32 )" busReadData [31:0] $end
$var wire 32 *" IRin [31:0] $end
$var reg 12 +" CSRsAddr [11:0] $end
$var reg 32 ," CSRsWriteData [31:0] $end
$var reg 1 ? CSRsWriteEn $end
$var reg 32 -" IR [31:0] $end
$var reg 32 ." busAddr [31:0] $end
$var reg 32 /" busWriteData [31:0] $end
$var reg 1 / busWriteEn $end
$var reg 32 0" divResult [31:0] $end
$var reg 32 1" divResultInvert [31:0] $end
$var reg 32 2" dividend [31:0] $end
$var reg 32 3" divisor [31:0] $end
$var reg 3 4" funct3 [2:0] $end
$var reg 7 5" funct7 [6:0] $end
$var reg 32 6" instBjumpAddr [31:0] $end
$var reg 32 7" jaljumpAddr [31:0] $end
$var reg 32 8" jumpAddr [31:0] $end
$var reg 1 = jumpEn $end
$var reg 64 9" mulitReasult [63:0] $end
$var reg 64 :" mulitReasultInvert [63:0] $end
$var reg 32 ;" multiplier1 [31:0] $end
$var reg 32 <" multiplier2 [31:0] $end
$var reg 7 =" opcode [6:0] $end
$var reg 5 >" rd [4:0] $end
$var reg 32 ?" rdData [31:0] $end
$var reg 1 9 rdWriteEn $end
$var reg 32 @" remReasult [31:0] $end
$var reg 32 A" remReasultInvert [31:0] $end
$var reg 5 B" rs1 [4:0] $end
$var reg 32 C" rs1DataInvert [31:0] $end
$var reg 5 D" rs2 [4:0] $end
$var reg 32 E" rs2DataInvert [31:0] $end
$upscope $end
$scope module u_regfiles $end
$var wire 1 $ clk $end
$var wire 5 F" rd [4:0] $end
$var wire 32 G" rdData [31:0] $end
$var wire 1 9 rdWriteEn $end
$var wire 5 H" rs1 [4:0] $end
$var wire 5 I" rs2 [4:0] $end
$var wire 1 # rstn $end
$var reg 32 J" rs1Data [31:0] $end
$var reg 32 K" rs2Data [31:0] $end
$upscope $end
$upscope $end
$scope module u_ram $end
$var wire 1 $ clk $end
$var wire 1 # rstn $end
$var wire 1 + writeEnable $end
$var wire 32 L" writeData [31:0] $end
$var wire 32 M" addr [31:0] $end
$var reg 32 N" readData [31:0] $end
$upscope $end
$scope module u_rib $end
$var wire 32 O" busAddr [31:0] $end
$var wire 32 P" busWriteData [31:0] $end
$var wire 1 / busWriteEnable $end
$var wire 32 Q" ramReadData [31:0] $end
$var wire 1 # rstn $end
$var wire 32 R" romReadData [31:0] $end
$var reg 32 S" addr [31:0] $end
$var reg 32 T" busReadData [31:0] $end
$var reg 32 U" ramAddr [31:0] $end
$var reg 32 V" ramWriteData [31:0] $end
$var reg 1 + ramWriteEnable $end
$var reg 32 W" readData [31:0] $end
$var reg 32 X" romAddr [31:0] $end
$var reg 32 Y" romWriteData [31:0] $end
$var reg 1 ' romWriteEnable $end
$var reg 32 Z" writeData [31:0] $end
$var reg 1 [" writeEnable $end
$upscope $end
$scope module u_rom $end
$var wire 32 \" PC [31:0] $end
$var wire 32 ]" addr [31:0] $end
$var wire 1 $ clk $end
$var wire 1 # rstn $end
$var wire 32 ^" writeData [31:0] $end
$var wire 1 ' writeEnable $end
$var reg 32 _" IR [31:0] $end
$var reg 32 `" readData [31:0] $end
$upscope $end
$upscope $end
$upscope $end
$enddefinitions $end
$comment Show the parameter values. $end
$dumpall
b11 w
b10 v
b0 u
b1 t
b101 s
b1 r
b11 q
b10 p
b100 o
b0 n
b0 W
b0 V
b0 U
b0 T
$end
#0
$dumpvars
b0 `"
b0 _"
b0 ^"
b0 ]"
b0 \"
0["
b0 Z"
b0 Y"
b0 X"
b0 W"
b0 V"
b0 U"
b0 T"
b0 S"
b0 R"
b0 Q"
b0 P"
b0 O"
b0 N"
b0 M"
b0 L"
b0 K"
b0 J"
b0 I"
b0 H"
b0 G"
b0 F"
b0 E"
b0 D"
b0 C"
b0 B"
bx A"
bx @"
b0 ?"
b0 >"
b1 ="
b0 <"
b0 ;"
b0 :"
b0 9"
b0 8"
b0 7"
b0 6"
b0 5"
b0 4"
b0 3"
b0 2"
bx 1"
bx 0"
b0 /"
b0 ."
b1 -"
b0 ,"
b0 +"
b0 *"
b0 )"
b0 ("
b0 '"
b0 &"
b0 %"
b0 $"
b0 #"
b0 ""
b0 !"
b0 ~
b0 }
0|
b0 {
b0 z
b0 y
b0 x
b0 m
b0 l
b0 k
b0 j
b0 i
b0 h
0g
b0 f
b0 e
b0 d
b0 c
b0 b
b0 a
b0 `
b0 _
b0 ^
b0 ]
b0 \
b0 [
b0 Z
b0 Y
b0 X
b0 S
b0 R
b0 Q
b0 P
b0 O
b0 N
b0 M
b0 L
b0 K
b0 J
b0 I
0H
b0 G
0F
b0 E
b0 D
b0 C
b0 B
b0 A
b0 @
0?
b0 >
0=
0<
b0 ;
b0 :
09
b0 8
b0 7
b0 6
b0 5
b0 4
b0 3
b0 2
b0 1
b0 0
0/
b0 .
b0 -
b0 ,
0+
b0 *
b0 )
b0 (
0'
bx &
bx %
0$
0#
b0 "
b0 !
$end
#10000
1$
#20000
0$
#30000
1$
#40000
0$
#50000
1$
#60000
0$
#70000
1$
#80000
0$
#90000
1$
#100000
0$
#110000
1$
#120000
0$
#130000
1$
#140000
0$
#150000
1$
#160000
0$
#170000
1$
#180000
0$
#190000
1$
#200000
0$
#210000
1$
#220000
0$
#230000
1$
#240000
0$
#250000
1$
#260000
0$
#270000
1$
#280000
0$
#290000
1$
#300000
0$
#310000
1$
#320000
0$
#330000
1$
#340000
0$
#350000
1$
#360000
0$
#370000
1$
#380000
0$
#390000
1$
#400000
0$
#410000
1$
#420000
0$
#430000
1$
#440000
0$
#450000
1$
#460000
0$
#470000
1$
#480000
0$
#490000
1$
#500000
0$
#510000
1$
#520000
0$
#530000
1$
#540000
0$
#550000
1$
#560000
0$
#570000
1$
#580000
0$
#590000
1$
#600000
0$
#610000
1$
#620000
0$
#630000
1$
#640000
0$
#650000
1$
#660000
0$
#670000
1$
#680000
0$
#690000
1$
#700000
0$
#710000
1$
#720000
0$
#730000
1$
#740000
0$
#750000
1$
#760000
0$
#770000
1$
#780000
0$
#790000
1$
#800000
0$
#810000
1$
#820000
0$
#830000
1$
#840000
0$
#850000
1$
#860000
0$
#870000
1$
#880000
0$
#890000
1$
#900000
0$
#910000
1$
#920000
0$
#930000
1$
#940000
0$
#950000
1$
#960000
0$
#970000
1$
#980000
0$
#990000
1$
#1000000
bx :"
bx 9"
bx <"
bx E"
b1001100 X
bx 5
bx '"
bx K"
b100110000000000000001101111 1
b100110000000000000001101111 L
b100110000000000000001101111 )"
b100110000000000000001101111 T"
19
b100 :
b100 ?"
b100 G"
1=
b1001100 >
b1001100 #"
b1001100 8"
b1000000 6"
b1001100 7"
b1001100 B
b1001100 Q
b1001100 +"
b1100 6
b1100 D"
b1100 I"
b10 5"
b1101111 ="
b100110000000000000001101111 W"
b100110000000000000001101111 -"
bx -
bx N"
bx Q"
b100110000000000000001101111 )
b100110000000000000001101111 R"
b100110000000000000001101111 `"
b100110000000000000001101111 !
b100110000000000000001101111 4
b100110000000000000001101111 O
b100110000000000000001101111 m
b100110000000000000001101111 *"
b100110000000000000001101111 _"
0$
1#
#1010000
b0 :"
b0 9"
b0 <"
b0 E"
b0 X
b0 5
b0 '"
b0 K"
0=
b100000000010 6"
b0 7"
b0 B
b0 Q
b0 +"
b0 6
b0 D"
b0 I"
b11 ;
b11 >"
b11 F"
b0 5"
b10011 ="
b110010011 -"
b0 :
b0 ?"
b0 G"
b0 >
b0 #"
b0 8"
b110010011 !
b110010011 4
b110010011 O
b110010011 m
b110010011 *"
b110010011 _"
b1001100 "
b1001100 3
b1001100 N
b1001100 l
b1001100 $"
b1001100 &"
b1001100 \"
b1 Y
1$
#1020000
0$
#1030000
b1010000 :
b1010000 ?"
b1010000 G"
b100000000100 6"
b101 ;
b101 >"
b101 F"
b10111 ="
b1010010111 -"
b1010010111 !
b1010010111 4
b1010010111 O
b1010010111 m
b1010010111 *"
b1010010111 _"
b10 Y
b1010000 "
b1010000 3
b1010000 N
b1010000 l
b1010000 $"
b1010000 &"
b1010000 \"
1$
#1040000
0$
#1050000
bx :"
bx 9"
bx <"
b1010000 ;"
bx E"
b11111111111111111111111110110000 C"
b111110110100 X
bx 5
bx '"
bx K"
b1010000 7
b1010000 ("
b1010000 J"
b11111111111111111111111110100100 6"
b11111111111100101000011110110100 7"
b111110110100 B
b111110110100 Q
b111110110100 +"
b10100 6
b10100 D"
b10100 I"
b101 8
b101 B"
b101 H"
b1111101 5"
b10011 ="
b11111011010000101000001010010011 -"
b100 :
b100 ?"
b100 G"
b11111011010000101000001010010011 !
b11111011010000101000001010010011 4
b11111011010000101000001010010011 O
b11111011010000101000001010010011 m
b11111011010000101000001010010011 *"
b11111011010000101000001010010011 _"
b1010100 "
b1010100 3
b1010100 N
b1010100 l
b1010100 $"
b1010100 &"
b1010100 \"
b11 Y
1$
#1060000
0$
#1070000
b1111111111111111111111111111111111111111111111111111111111110000 :"
b10000 9"
b100 <"
b11111111111111111111111111111100 E"
b100 f
b1100000101 X
1g
b100 5
b100 '"
b100 K"
1?
b100 @
b100 P
b100 ,"
b1100000000 6"
b101001101100000100 7"
b1100000101 B
b1100000101 Q
b1100000101 +"
b101 6
b101 D"
b101 I"
b0 ;
b0 >"
b0 F"
b11000 5"
b1 4"
b1110011 ="
b110000010100101001000001110011 -"
b100 ;"
b11111111111111111111111111111100 C"
b0 :
b0 ?"
b0 G"
b110000010100101001000001110011 !
b110000010100101001000001110011 4
b110000010100101001000001110011 O
b110000010100101001000001110011 m
b110000010100101001000001110011 *"
b110000010100101001000001110011 _"
b100 7
b100 ("
b100 J"
b100 Y
b1011000 "
b1011000 3
b1011000 N
b1011000 l
b1011000 $"
b1011000 &"
b1011000 \"
1$
#1080000
0$
#1090000
b0 E"
b0 C"
b0 f
b1100000000 X
b0 5
b0 '"
b0 K"
b0 7
b0 ("
b0 J"
bx A"
bx @"
bx 1"
bx 0"
b0 :"
b0 9"
b0 3"
b0 2"
b0 <"
b0 ;"
b0 @
b0 P
b0 ,"
b101001100000000 7"
b1100000000 B
b1100000000 Q
b1100000000 +"
b0 6
b0 D"
b0 I"
b0 8
b0 B"
b0 H"
b101 4"
b110000000000000101000001110011 -"
b0 :
b0 ?"
b0 G"
b110000000000000101000001110011 !
b110000000000000101000001110011 4
b110000000000000101000001110011 O
b110000000000000101000001110011 m
b110000000000000101000001110011 *"
b110000000000000101000001110011 _"
b0 A
b0 Z
b0 %"
b1011100 "
b1011100 3
b1011100 N
b1011100 l
b1011100 $"
b1011100 &"
b1011100 \"
b100 C
b100 e
b100 j
b101 Y
1$
#1100000
0$
#1110000
b0 X
0g
0?
b1100000 :
b1100000 ?"
b1100000 G"
b100000000100 6"
b0 7"
b0 B
b0 Q
b0 +"
b101 ;
b101 >"
b101 F"
b0 5"
b0 4"
b10111 ="
b1010010111 -"
b1010010111 !
b1010010111 4
b1010010111 O
b1010010111 m
b1010010111 *"
b1010010111 _"
b110 Y
b1100000 "
b1100000 3
b1100000 N
b1100000 l
b1100000 $"
b1100000 &"
b1100000 \"
1$
#1120000
0$
#1130000
b1100000 ;"
b11111111111111111111111110100000 C"
b100000 X
b1100000 7
b1100000 ("
b1100000 J"
b100000100100 6"
b101000000000100000 7"
b100000 B
b100000 Q
b100000 +"
b101 8
b101 B"
b101 H"
b1 5"
b10011 ="
b10000000101000001010010011 -"
b10000000 :
b10000000 ?"
b10000000 G"
b10000000101000001010010011 !
b10000000101000001010010011 4
b10000000101000001010010011 O
b10000000101000001010010011 m
b10000000101000001010010011 *"
b10000000101000001010010011 _"
b1100100 "
b1100100 3
b1100100 N
b1100100 l
b1100100 $"
b1100100 &"
b1100100 \"
b111 Y
1$
#1140000
0$
#1150000
bx :"
bx 9"
bx <"
bx E"
b10000000 f
b1101000001 X
1g
bx 5
bx '"
bx K"
1?
b10000000 @
b10000000 P
b10000000 ,"
b1101000000 6"
b101001101101000000 7"
b1101000001 B
b1101000001 Q
b1101000001 +"
b1 6
b1 D"
b1 I"
b0 ;
b0 >"
b0 F"
b11010 5"
b1 4"
b1110011 ="
b110100000100101001000001110011 -"
b10000000 ;"
b11111111111111111111111110000000 C"
b0 :
b0 ?"
b0 G"
b110100000100101001000001110011 !
b110100000100101001000001110011 4
b110100000100101001000001110011 O
b110100000100101001000001110011 m
b110100000100101001000001110011 *"
b110100000100101001000001110011 _"
b10000000 7
b10000000 ("
b10000000 J"
b1000 Y
b1101000 "
b1101000 3
b1101000 N
b1101000 l
b1101000 $"
b1101000 &"
b1101000 \"
1$
#1160000
0$
#1170000
b0 :"
b0 9"
b0 <"
b0 ;"
b0 E"
b0 C"
b0 f
b0 X
0g
b0 5
b0 '"
b0 K"
b0 7
b0 ("
b0 J"
0?
b0 @
b0 P
b0 ,"
b100000000100 6"
b0 7"
b0 B
b0 Q
b0 +"
b0 6
b0 D"
b0 I"
b0 8
b0 B"
b0 H"
b101 ;
b101 >"
b101 F"
b0 5"
b0 4"
b10011 ="
b1010010011 -"
b0 :
b0 ?"
b0 G"
b1010010011 !
b1010010011 4
b1010010011 O
b1010010011 m
b1010010011 *"
b1010010011 _"
b0 A
b0 Z
b0 %"
b1101100 "
b1101100 3
b1101100 N
b1101100 l
b1101100 $"
b1101100 &"
b1101100 \"
b10000000 E
b10000000 \
b10000000 h
b1001 Y
1$
#1180000
0$
#1190000
b100000000 X
b10000000000000000000000000000 :
b10000000000000000000000000000 ?"
b10000000000000000000000000000 G"
b100000110 6"
b100000000 7"
b100000000 B
b100000000 Q
b100000000 +"
b110 ;
b110 >"
b110 F"
b1000 5"
b110111 ="
b10000000000000000001100110111 -"
b10000000000000000001100110111 !
b10000000000000000001100110111 4
b10000000000000000001100110111 O
b10000000000000000001100110111 m
b10000000000000000001100110111 *"
b10000000000000000001100110111 _"
b1010 Y
b1110000 "
b1110000 3
b1110000 N
b1110000 l
b1110000 $"
b1110000 &"
b1110000 \"
1$
#1200000
0$
#1210000
bx :"
bx 9"
bx <"
b10000000000000000000000000000 ;"
bx E"
b11110000000000000000000000000000 C"
b10000 X
bx 5
bx '"
bx K"
b10000000000000000000000000000 7
b10000000000000000000000000000 ("
b10000000000000000000000000000 J"
b10000000000000000000000010000 :
b10000000000000000000000010000 ?"
b10000000000000000000000010000 G"
b110 6"
b110000000000010000 7"
b10000 B
b10000 Q
b10000 +"
b10000 6
b10000 D"
b10000 I"
b110 8
b110 B"
b110 H"
b0 5"
b10011 ="
b1000000110000001100010011 -"
b1000000110000001100010011 !
b1000000110000001100010011 4
b1000000110000001100010011 O
b1000000110000001100010011 m
b1000000110000001100010011 *"
b1000000110000001100010011 _"
b1110100 "
b1110100 3
b1110100 N
b1110100 l
b1110100 $"
b1110100 &"
b1110100 \"
b1011 Y
1$
#1220000
0$
#1230000
bx 1
bx L
bx )"
bx T"
b0 ,
b0 L"
b0 V"
b10000 .
b10000 M"
b10000 U"
1+
bx W"
b0 :"
b0 9"
b0 <"
b0 E"
b0 Z"
1["
b10000000000000000000000010000 S"
b101 X
b0 5
b0 '"
b0 K"
b0 0
b0 K
b0 /"
b0 P"
1/
09
b10000000000000000000000010000 2
b10000000000000000000000010000 M
b10000000000000000000000010000 ."
b10000000000000000000000010000 O"
b0 6"
b110010100000000100 7"
b101 B
b101 Q
b101 +"
b101 6
b101 D"
b101 I"
b0 ;
b0 >"
b0 F"
b10 4"
b100011 ="
b10100110010000000100011 -"
b10000000000000000000000010000 ;"
b11101111111111111111111111110000 C"
b0 :
b0 ?"
b0 G"
b10100110010000000100011 !
b10100110010000000100011 4
b10100110010000000100011 O
b10100110010000000100011 m
b10100110010000000100011 *"
b10100110010000000100011 _"
b10000000000000000000000010000 7
b10000000000000000000000010000 ("
b10000000000000000000000010000 J"
b1100 Y
b1111000 "
b1111000 3
b1111000 N
b1111000 l
b1111000 $"
b1111000 &"
b1111000 \"
1$
#1240000
0$
#1250000
b0 .
b0 M"
b0 U"
0+
b0 :"
b0 9"
b0 <"
b0 ;"
b0 E"
b0 C"
0["
b0 S"
b0 X
b0 5
b0 '"
b0 K"
b0 7
b0 ("
b0 J"
0/
b0 2
b0 M
b0 ."
b0 O"
b0 6"
b0 7"
b0 B
b0 Q
b0 +"
b0 6
b0 D"
b0 I"
b0 8
b0 B"
b0 H"
b0 5"
b0 4"
b1 ="
b100110000000000000001101111 1
b100110000000000000001101111 L
b100110000000000000001101111 )"
b100110000000000000001101111 T"
1<
b1 -"
b100110000000000000001101111 W"
b11 }
b110000001000000000000001110011 !
b110000001000000000000001110011 4
b110000001000000000000001110011 O
b110000001000000000000001110011 m
b110000001000000000000001110011 *"
b110000001000000000000001110011 _"
bx -
bx N"
bx Q"
b1111100 "
b1111100 3
b1111100 N
b1111100 l
b1111100 $"
b1111100 &"
b1111100 \"
b1101 Y
1$
#1260000
0$
#1270000
b11 z
b1110 Y
1$
#1280000
0$
#1290000
b1100000000 X
1g
b1111 Y
b10000000 G
b10000000 ~
b10000000 ""
1F
b101 z
b1100000000 J
b1100000000 S
b1100000000 y
1H
1$
#1300000
0$
#1310000
19
b10000010000000 :
b10000010000000 ?"
b10000010000000 G"
b10000 6"
b10000000000000 7"
b10000 ;
b10000 >"
b10000 F"
b10 4"
b10111 ="
b10100000010111 -"
0<
b0 X
0g
b0 }
b10100000010111 !
b10100000010111 4
b10100000010111 O
b10100000010111 m
b10100000010111 *"
b10100000010111 _"
b0 G
b0 ~
b0 ""
0F
b0 z
b0 J
b0 S
b0 y
0H
b10000 Y
b10000000 "
b10000000 3
b10000000 N
b10000000 l
b10000000 $"
b10000000 &"
b10000000 \"
1$
#1320000
0$
#1330000
bx :"
bx 9"
bx <"
b10000010000000 ;"
bx E"
b11111111111111111101111110000000 C"
b111110000100 X
bx 5
bx '"
bx K"
b10000010000000 7
b10000010000000 ("
b10000010000000 J"
b11111111111111111111011110010000 6"
b11111111111110000000011110000100 7"
b111110000100 B
b111110000100 Q
b111110000100 +"
b100 6
b100 D"
b100 I"
b10000 8
b10000 B"
b10000 H"
b1111100 5"
b0 4"
b10011 ="
b11111000010010000000100000010011 -"
b10000000000100 :
b10000000000100 ?"
b10000000000100 G"
b11111000010010000000100000010011 !
b11111000010010000000100000010011 4
b11111000010010000000100000010011 O
b11111000010010000000100000010011 m
b11111000010010000000100000010011 *"
b11111000010010000000100000010011 _"
b10000100 "
b10000100 3
b10000100 N
b10000100 l
b10000100 $"
b10000100 &"
b10000100 \"
b10001 Y
1$
#1340000
0$
#1350000
b0 :"
b0 9"
b0 <"
b0 E"
b0 X
b0 5
b0 '"
b0 K"
b100000010000 6"
b10000000000000 7"
b0 B
b0 Q
b0 +"
b0 6
b0 D"
b0 I"
b0 8
b0 B"
b0 H"
b10001 ;
b10001 >"
b10001 F"
b0 5"
b10 4"
b10111 ="
b10100010010111 -"
b0 ;"
b0 C"
b10000010001000 :
b10000010001000 ?"
b10000010001000 G"
b10100010010111 !
b10100010010111 4
b10100010010111 O
b10100010010111 m
b10100010010111 *"
b10100010010111 _"
b0 7
b0 ("
b0 J"
b10010 Y
b10001000 "
b10001000 3
b10001000 N
b10001000 l
b10001000 $"
b10001000 &"
b10001000 \"
1$
#1360000
0$
#1370000
bx :"
bx 9"
bx <"
b10000010001000 ;"
bx E"
b11111111111111111101111101111000 C"
b111110001000 X
bx 5
bx '"
bx K"
b10000010001000 7
b10000010001000 ("
b10000010001000 J"
b11111111111111111111111110010000 6"
b11111111111110001000011110001000 7"
b111110001000 B
b111110001000 Q
b111110001000 +"
b1000 6
b1000 D"
b1000 I"
b10001 8
b10001 B"
b10001 H"
b1111100 5"
b0 4"
b10011 ="
b11111000100010001000100010010011 -"
b10000000010000 :
b10000000010000 ?"
b10000000010000 G"
b11111000100010001000100010010011 !
b11111000100010001000100010010011 4
b11111000100010001000100010010011 O
b11111000100010001000100010010011 m
b11111000100010001000100010010011 *"
b11111000100010001000100010010011 _"
b10001100 "
b10001100 3
b10001100 N
b10001100 l
b10001100 $"
b10001100 &"
b10001100 \"
b10011 Y
1$
#1380000
0$
#1390000
b0 :"
b0 9"
b0 <"
b0 E"
b0 X
b0 5
b0 '"
b0 K"
b100000000010 6"
b0 7"
b0 B
b0 Q
b0 +"
b0 6
b0 D"
b0 I"
b0 8
b0 B"
b0 H"
b11 ;
b11 >"
b11 F"
b0 5"
b110010011 -"
b0 ;"
b0 C"
b0 :
b0 ?"
b0 G"
b110010011 !
b110010011 4
b110010011 O
b110010011 m
b110010011 *"
b110010011 _"
b0 7
b0 ("
b0 J"
b10100 Y
b10010000 "
b10010000 3
b10010000 N
b10010000 l
b10010000 $"
b10010000 &"
b10010000 \"
1$
#1400000
0$
#1410000
b110000 1
b110000 L
b110000 )"
b110000 T"
b110000 W"
b110000 )
b110000 R"
b110000 `"
b10000000000100 *
b10000000000100 X"
b10000000000100 ]"
b10000000000100 S"
b10000000000100 ;"
b11111111111111111101111111111100 C"
b10000000000100 2
b10000000000100 M
b10000000000100 ."
b10000000000100 O"
b10000000000100 7
b10000000000100 ("
b10000000000100 J"
b110000 :
b110000 ?"
b110000 G"
b100000000000 6"
b10000010000000000000 7"
b10000 8
b10000 B"
b10000 H"
b1 ;
b1 >"
b1 F"
b10 4"
b11 ="
b10000010000010000011 -"
b10000010000010000011 !
b10000010000010000011 4
b10000010000010000011 O
b10000010000010000011 m
b10000010000010000011 *"
b10000010000010000011 _"
b10010100 "
b10010100 3
b10010100 N
b10010100 l
b10010100 $"
b10010100 &"
b10010100 \"
b10101 Y
1$
#1420000
0$
#1430000
b10010 :
b10010 ?"
b10010 G"
b10010 1
b10010 L
b10010 )"
b10010 T"
b10010 W"
b10010 )
b10010 R"
b10010 `"
b10000000001000 *
b10000000001000 X"
b10000000001000 ]"
bx :"
bx 9"
bx <"
bx E"
b10000000001000 S"
b100 X
bx 5
bx '"
bx K"
b10000000001000 2
b10000000001000 M
b10000000001000 ."
b10000000001000 O"
b10 6"
b10000010000000000100 7"
b100 B
b100 Q
b100 +"
b100 6
b100 D"
b100 I"
b10 ;
b10 >"
b10 F"
b10010000010000100000011 -"
b10010000010000100000011 !
b10010000010000100000011 4
b10010000010000100000011 O
b10010000010000100000011 m
b10010000010000100000011 *"
b10010000010000100000011 _"
b10110 Y
b10011000 "
b10011000 3
b10011000 N
b10011000 l
b10011000 $"
b10011000 &"
b10011000 \"
1$
#1440000
0$
#1450000
b100110000000000000001101111 1
b100110000000000000001101111 L
b100110000000000000001101111 )"
b100110000000000000001101111 T"
b100110000000000000001101111 W"
b100110000000000000001101111 )
b100110000000000000001101111 R"
b100110000000000000001101111 `"
b0 *
b0 X"
b0 ]"
b0 :"
b0 9"
b0 <"
b0 ;"
b0 E"
b0 C"
b0 S"
b0 X
b0 5
b0 '"
b0 K"
b0 7
b0 ("
b0 J"
b10000010011100 :
b10000010011100 ?"
b10000010011100 G"
b0 2
b0 M
b0 ."
b0 O"
b10100 6"
b10000000000000 7"
b0 B
b0 Q
b0 +"
b0 6
b0 D"
b0 I"
b0 8
b0 B"
b0 H"
b10100 ;
b10100 >"
b10100 F"
b10111 ="
b10101000010111 -"
b10101000010111 !
b10101000010111 4
b10101000010111 O
b10101000010111 m
b10101000010111 *"
b10101000010111 _"
b10011100 "
b10011100 3
b10011100 N
b10011100 l
b10011100 $"
b10011100 &"
b10011100 \"
b10111 Y
1$
#1460000
0$
#1470000
bx :"
bx 9"
bx <"
b10000010011100 ;"
bx E"
b11111111111111111101111101100100 C"
b111101100100 X
bx 5
bx '"
bx K"
b10000010011100 7
b10000010011100 ("
b10000010011100 J"
b11111111111111111111011101110100 6"
b11111111111110100000011101100100 7"
b111101100100 B
b111101100100 Q
b111101100100 +"
b100 6
b100 D"
b100 I"
b10100 8
b10100 B"
b10100 H"
b1111011 5"
b0 4"
b10011 ="
b11110110010010100000101000010011 -"
b10000000000000 :
b10000000000000 ?"
b10000000000000 G"
b11110110010010100000101000010011 !
b11110110010010100000101000010011 4
b11110110010010100000101000010011 O
b11110110010010100000101000010011 m
b11110110010010100000101000010011 *"
b11110110010010100000101000010011 _"
b11000 Y
b10100000 "
b10100000 3
b10100000 N
b10100000 l
b10100000 $"
b10100000 &"
b10100000 \"
1$
#1480000
0$
#1490000
b0 :"
b0 9"
b0 <"
b0 E"
b0 X
b0 5
b0 '"
b0 K"
b10100100 :
b10100100 ?"
b10100100 G"
b100000010100 6"
b0 7"
b0 B
b0 Q
b0 +"
b0 6
b0 D"
b0 I"
b0 8
b0 B"
b0 H"
b10101 ;
b10101 >"
b10101 F"
b0 5"
b10111 ="
b0 ;"
b0 C"
b101010010111 -"
b0 7
b0 ("
b0 J"
b101010010111 !
b101010010111 4
b101010010111 O
b101010010111 m
b101010010111 *"
b101010010111 _"
b10100100 "
b10100100 3
b10100100 N
b10100100 l
b10100100 $"
b10100100 &"
b10100100 \"
b11001 Y
1$
